// Jest Snapshot v1, https://goo.gl/fbAQLP

exports[`renders correctly 1`] = `
<View
  style={
    Object {
      "alignItems": "center",
      "backgroundColor": "#fff",
      "flex": 1,
      "justifyContent": "center",
    }
  }
>
  <Text />
  <View
    style={
      Object {
        "alignSelf": "center",
        "height": 80,
        "marginTop": 44,
        "width": "50%",
      }
    }
  >
    <Image
      source={1}
      style={
        Object {
          "height": "100%",
          "width": "100%",
        }
      }
    />
  </View>
  <RCTScrollView
    collapsable={false}
    onGestureHandlerEvent={[Function]}
    onGestureHandlerStateChange={[Function]}
    style={
      Object {
        "backgroundColor": "#FF9548",
        "flex": 1,
        "flexGrow": 1,
        "width": "100%",
      }
    }
  >
    <View>
      <View
        style={
          Object {
            "alignItems": "stretch",
            "backgroundColor": "#0E406B",
            "flex": 1,
            "flexGrow": 1,
            "justifyContent": "flex-start",
            "width": "100%",
          }
        }
      >
        <View
          style={Object {}}
        >
          <View
            accessible={true}
            isTVSelectable={true}
            onResponderGrant={[Function]}
            onResponderMove={[Function]}
            onResponderRelease={[Function]}
            onResponderTerminate={[Function]}
            onResponderTerminationRequest={[Function]}
            onStartShouldSetResponder={[Function]}
            style={null}
          >
            <View
              style={
                Object {
                  "alignItems": "center",
                  "backgroundColor": "#FF9548",
                  "flexDirection": "row",
                  "height": 70,
                  "justifyContent": "space-between",
                  "paddingHorizontal": 10,
                }
              }
            >
              <Text
                style={
                  Object {
                    "color": "#fff",
                    "fontSize": 20,
                  }
                }
              >
                ¿QUE ES ALERTA EMILIA?
              </Text>
              <Text />
            </View>
          </View>
          <View
            pointerEvents="none"
            style={
              Object {
                "height": 0,
                "overflow": "hidden",
              }
            }
          >
            <View
              onLayout={[Function]}
              style={Object {}}
            >
              <View
                style={
                  Object {
                    "backgroundColor": "#FEFFD4",
                    "paddingVertical": 10,
                  }
                }
              >
                <Text
                  style={
                    Object {
                      "color": "#053862",
                      "fontSize": 16,
                      "margin": 5,
                      "textAlign": "justify",
                    }
                  }
                >
                  Alerta EMILIA es un sistema de notificación de menores de edad desaparecidos considerados en ALTO RIESGO. En el cual se organizan las instituciones, sociedad civil y los medios de comunicación para su pronta y oportuna localización.
                </Text>
                <Text
                  style={
                    Object {
                      "color": "#053862",
                      "fontSize": 16,
                      "margin": 5,
                      "textAlign": "justify",
                    }
                  }
                >
                  Los mensajes de alerta son especialmente útiles, dado que la celeridad a la hora de actuar es vital.
                </Text>
              </View>
            </View>
          </View>
        </View>
        <View
          style={Object {}}
        >
          <View
            accessible={true}
            isTVSelectable={true}
            onResponderGrant={[Function]}
            onResponderMove={[Function]}
            onResponderRelease={[Function]}
            onResponderTerminate={[Function]}
            onResponderTerminationRequest={[Function]}
            onStartShouldSetResponder={[Function]}
            style={null}
          >
            <View
              style={
                Object {
                  "alignItems": "center",
                  "backgroundColor": "#FF9548",
                  "flexDirection": "row",
                  "height": 70,
                  "justifyContent": "space-between",
                  "paddingHorizontal": 10,
                }
              }
            >
              <Text
                style={
                  Object {
                    "color": "#fff",
                    "fontSize": 20,
                  }
                }
              >
                ¿COMÓ FUNCIONA
              </Text>
              <Text />
            </View>
          </View>
          <View
            pointerEvents="none"
            style={
              Object {
                "height": 0,
                "overflow": "hidden",
              }
            }
          >
            <View
              onLayout={[Function]}
              style={Object {}}
            >
              <View
                style={
                  Object {
                    "backgroundColor": "#FEFFD4",
                    "paddingVertical": 10,
                  }
                }
              >
                <Text
                  style={
                    Object {
                      "color": "#053862",
                      "fontSize": 16,
                      "margin": 5,
                      "textAlign": "justify",
                    }
                  }
                >
                  Una vez que las entidades encargadas determinan que un niño, niña o adolescente ha desaparecido, se encuentra en alto riesgo y cumple con los criterios de Alerta EMILIA, se activa inmediatamente su alarma y la notificación de búsqueda mediante Facebook 160 km a la redonda de la desaparición
                </Text>
                <Image
                  resizeMode="contain"
                  source={1}
                  style={
                    Object {
                      "height": 250,
                      "width": "100%",
                    }
                  }
                />
              </View>
            </View>
          </View>
        </View>
        <View
          style={Object {}}
        >
          <View
            accessible={true}
            isTVSelectable={true}
            onResponderGrant={[Function]}
            onResponderMove={[Function]}
            onResponderRelease={[Function]}
            onResponderTerminate={[Function]}
            onResponderTerminationRequest={[Function]}
            onStartShouldSetResponder={[Function]}
            style={null}
          >
            <View
              style={
                Object {
                  "alignItems": "center",
                  "backgroundColor": "#FF9548",
                  "flexDirection": "row",
                  "height": 70,
                  "justifyContent": "space-between",
                  "paddingHorizontal": 10,
                }
              }
            >
              <Text
                style={
                  Object {
                    "color": "#fff",
                    "fontSize": 20,
                  }
                }
              >
                ¿QUÉ HACER?
              </Text>
              <Text />
            </View>
          </View>
          <View
            pointerEvents="none"
            style={
              Object {
                "height": 0,
                "overflow": "hidden",
              }
            }
          >
            <View
              onLayout={[Function]}
              style={Object {}}
            >
              <View
                style={
                  Object {
                    "backgroundColor": "#FEFFD4",
                    "paddingVertical": 10,
                  }
                }
              >
                <View
                  style={
                    Object {
                      "alignItems": "center",
                      "flexDirection": "row",
                      "justifyContent": "space-between",
                      "padding": 10,
                    }
                  }
                >
                  <Image
                    source={1}
                    style={
                      Object {
                        "flex": 3,
                        "marginRight": 10,
                        "maxHeight": 60,
                        "maxWidth": 80,
                      }
                    }
                  />
                  <Text
                    style={
                      Object {
                        "color": "#053862",
                        "flex": 7,
                        "fontSize": 16,
                        "margin": 5,
                        "textAlign": "justify",
                      }
                    }
                  >
                    Si ves uno de estos y tienes información sigue los siguientes pasos:
                  </Text>
                </View>
                <View
                  style={
                    Object {
                      "alignItems": "center",
                      "flexDirection": "row",
                      "justifyContent": "space-between",
                      "padding": 10,
                    }
                  }
                >
                  <Image
                    source={1}
                    style={
                      Object {
                        "flex": 3,
                        "marginRight": 10,
                        "maxHeight": 60,
                        "maxWidth": 80,
                      }
                    }
                  />
                  <Text
                    style={
                      Object {
                        "color": "#053862",
                        "flex": 7,
                        "fontSize": 16,
                        "margin": 5,
                        "textAlign": "justify",
                      }
                    }
                  >
                    Cuando recibes información de un menor de edad desaparecido presta más atención a los anuncios de los diferentes medios como: TV, afiches, mensajes de texto, radio y redes sociales.
                  </Text>
                </View>
                <View
                  style={
                    Object {
                      "alignItems": "center",
                      "flexDirection": "row",
                      "justifyContent": "space-between",
                      "padding": 10,
                    }
                  }
                >
                  <Image
                    source={1}
                    style={
                      Object {
                        "flex": 3,
                        "marginRight": 10,
                        "maxHeight": 60,
                        "maxWidth": 80,
                      }
                    }
                  />
                  <Text
                    style={
                      Object {
                        "color": "#053862",
                        "flex": 7,
                        "fontSize": 16,
                        "margin": 5,
                        "textAlign": "justify",
                      }
                    }
                  >
                    Mantente atento a tu alrededor para compartir y notificar si cuentas con información que ayude a la ubicación del menor de edad desaparecido comunicarse a: 1800– DELITO (335486) o al 911.
                  </Text>
                </View>
              </View>
            </View>
          </View>
        </View>
        <View
          style={Object {}}
        >
          <View
            accessible={true}
            isTVSelectable={true}
            onResponderGrant={[Function]}
            onResponderMove={[Function]}
            onResponderRelease={[Function]}
            onResponderTerminate={[Function]}
            onResponderTerminationRequest={[Function]}
            onStartShouldSetResponder={[Function]}
            style={null}
          >
            <View
              style={
                Object {
                  "alignItems": "center",
                  "backgroundColor": "#FF9548",
                  "flexDirection": "row",
                  "height": 70,
                  "justifyContent": "space-between",
                  "paddingHorizontal": 10,
                }
              }
            >
              <Text
                style={
                  Object {
                    "color": "#fff",
                    "fontSize": 20,
                  }
                }
              >
                CASOS RESUELTOS
              </Text>
              <Text />
            </View>
          </View>
          <View
            pointerEvents="none"
            style={
              Object {
                "height": 0,
                "overflow": "hidden",
              }
            }
          >
            <View
              onLayout={[Function]}
              style={Object {}}
            >
              <View
                style={
                  Object {
                    "backgroundColor": "#FEFFD4",
                    "paddingVertical": 10,
                  }
                }
              >
                <Text
                  style={
                    Object {
                      "color": "#053862",
                      "fontSize": 16,
                      "margin": 5,
                      "textAlign": "justify",
                    }
                  }
                >
                  Al momento no existen casos
                </Text>
              </View>
            </View>
          </View>
        </View>
      </View>
    </View>
  </RCTScrollView>
</View>
`;
